EESchema Schematic File Version 4
EELAYER 30 0
EELAYER END
$Descr A4 11693 8268
encoding utf-8
Sheet 1 1
Title "espKidsKitchen"
Date ""
Rev ""
Comp ""
Comment1 "https://codeberg.org/JohnWalkerx/espKidsKitchen"
Comment2 "CC BY-SA 4.0"
Comment3 ""
Comment4 ""
$EndDescr
$Comp
L MCU_Module:WeMos_D1_mini U1
U 1 1 61A912E5
P 4150 2000
F 0 "U1" H 4150 1111 50  0000 C CNN
F 1 "WeMos_D1_mini" H 4150 1020 50  0000 C CNN
F 2 "Module:WEMOS_D1_mini_light" H 4150 850 50  0001 C CNN
F 3 "https://wiki.wemos.cc/products:d1:d1_mini#documentation" H 2300 850 50  0001 C CNN
	1    4150 2000
	1    0    0    -1  
$EndComp
$Comp
L MCU_AnalogDevices:DFPlayer-mini U2
U 1 1 61A93F4D
P 6750 2450
F 0 "U2" H 6775 3865 50  0000 C CNN
F 1 "DFPlayer-mini" H 6775 3774 50  0000 C CNN
F 2 "" H 6750 2450 50  0001 C CNN
F 3 "" H 6750 2450 50  0001 C CNN
	1    6750 2450
	1    0    0    -1  
$EndComp
$Comp
L Connector:Conn_01x02_Female J1
U 1 1 61A96795
P 8800 1250
F 0 "J1" H 8828 1180 50  0000 L CNN
F 1 "Conn_01x02_Female" H 8828 1135 50  0001 L CNN
F 2 "" H 8800 1250 50  0001 C CNN
F 3 "~" H 8800 1250 50  0001 C CNN
	1    8800 1250
	1    0    0    -1  
$EndComp
$Comp
L Connector:Conn_01x02_Male J2
U 1 1 61A97F1F
P 8950 1250
F 0 "J2" H 9058 1339 50  0000 C CNN
F 1 "Conn_01x02_Male" H 9058 1340 50  0001 C CNN
F 2 "" H 8950 1250 50  0001 C CNN
F 3 "~" H 8950 1250 50  0001 C CNN
	1    8950 1250
	1    0    0    -1  
$EndComp
$Comp
L Connector:Conn_01x03_Female J3
U 1 1 61A9997B
P 8650 3300
F 0 "J3" H 8678 3280 50  0000 L CNN
F 1 "Conn_01x03_Female" H 8678 3235 50  0001 L CNN
F 2 "" H 8650 3300 50  0001 C CNN
F 3 "~" H 8650 3300 50  0001 C CNN
	1    8650 3300
	1    0    0    -1  
$EndComp
$Comp
L Connector:Conn_01x03_Female J5
U 1 1 61A9B316
P 8650 5100
F 0 "J5" H 8678 5080 50  0000 L CNN
F 1 "Conn_01x03_Female" H 8678 5035 50  0001 L CNN
F 2 "" H 8650 5100 50  0001 C CNN
F 3 "~" H 8650 5100 50  0001 C CNN
	1    8650 5100
	1    0    0    -1  
$EndComp
$Comp
L Connector:Conn_01x03_Female J7
U 1 1 61A9CC65
P 1950 4400
F 0 "J7" H 1978 4380 50  0000 L CNN
F 1 "Conn_01x03_Female" H 1978 4335 50  0001 L CNN
F 2 "" H 1950 4400 50  0001 C CNN
F 3 "~" H 1950 4400 50  0001 C CNN
	1    1950 4400
	1    0    0    -1  
$EndComp
$Comp
L Connector:Conn_01x03_Female J9
U 1 1 61A9D515
P 1950 5350
F 0 "J9" H 1978 5330 50  0000 L CNN
F 1 "Conn_01x03_Female" H 1978 5285 50  0001 L CNN
F 2 "" H 1950 5350 50  0001 C CNN
F 3 "~" H 1950 5350 50  0001 C CNN
	1    1950 5350
	1    0    0    -1  
$EndComp
$Comp
L Connector:Conn_01x03_Male J10
U 1 1 61A9E240
P 2100 5350
F 0 "J10" H 2208 5539 50  0000 C CNN
F 1 "10" H 2208 5540 50  0001 C CNN
F 2 "" H 2100 5350 50  0001 C CNN
F 3 "~" H 2100 5350 50  0001 C CNN
	1    2100 5350
	1    0    0    -1  
$EndComp
$Comp
L Connector:Conn_01x03_Male J8
U 1 1 61AA101D
P 2100 4400
F 0 "J8" H 2208 4589 50  0000 C CNN
F 1 "Conn_01x03_Male" H 2208 4590 50  0001 C CNN
F 2 "" H 2100 4400 50  0001 C CNN
F 3 "~" H 2100 4400 50  0001 C CNN
	1    2100 4400
	1    0    0    -1  
$EndComp
$Comp
L Connector:Conn_01x03_Male J4
U 1 1 61AA23A5
P 8800 3300
F 0 "J4" H 8908 3489 50  0000 C CNN
F 1 "Conn_01x03_Male" H 8908 3490 50  0001 C CNN
F 2 "" H 8800 3300 50  0001 C CNN
F 3 "~" H 8800 3300 50  0001 C CNN
	1    8800 3300
	1    0    0    -1  
$EndComp
$Comp
L Connector:Conn_01x03_Male J6
U 1 1 61AA32CF
P 8800 5100
F 0 "J6" H 8908 5289 50  0000 C CNN
F 1 "Conn_01x03_Male" H 8908 5290 50  0001 C CNN
F 2 "" H 8800 5100 50  0001 C CNN
F 3 "~" H 8800 5100 50  0001 C CNN
	1    8800 5100
	1    0    0    -1  
$EndComp
$Comp
L Device:Speaker LS1
U 1 1 61AA43BB
P 9600 1250
F 0 "LS1" H 9770 1246 50  0000 L CNN
F 1 "Speaker" H 9770 1155 50  0000 L CNN
F 2 "" H 9600 1050 50  0001 C CNN
F 3 "~" H 9590 1200 50  0001 C CNN
	1    9600 1250
	1    0    0    -1  
$EndComp
$Comp
L Connector:Conn_01x02_Female J11
U 1 1 61AA7895
P 1800 1700
F 0 "J11" H 1692 1793 50  0000 C CNN
F 1 "Conn_01x02_Female" H 1692 1794 50  0001 C CNN
F 2 "" H 1800 1700 50  0001 C CNN
F 3 "~" H 1800 1700 50  0001 C CNN
	1    1800 1700
	-1   0    0    -1  
$EndComp
$Comp
L Connector:Conn_01x02_Male J12
U 1 1 61AAA1AC
P 1600 1700
F 0 "J12" H 1572 1628 50  0000 R CNN
F 1 "Conn_01x02_Male" H 1572 1583 50  0001 R CNN
F 2 "" H 1600 1700 50  0001 C CNN
F 3 "~" H 1600 1700 50  0001 C CNN
	1    1600 1700
	-1   0    0    -1  
$EndComp
$Comp
L power:+5V #PWR?
U 1 1 61AAD023
P 2500 1500
F 0 "#PWR?" H 2500 1350 50  0001 C CNN
F 1 "+5V" H 2515 1673 50  0000 C CNN
F 2 "" H 2500 1500 50  0001 C CNN
F 3 "" H 2500 1500 50  0001 C CNN
	1    2500 1500
	1    0    0    -1  
$EndComp
$Comp
L power:GND #PWR?
U 1 1 61AADFB2
P 2500 2000
F 0 "#PWR?" H 2500 1750 50  0001 C CNN
F 1 "GND" H 2505 1827 50  0000 C CNN
F 2 "" H 2500 2000 50  0001 C CNN
F 3 "" H 2500 2000 50  0001 C CNN
	1    2500 2000
	1    0    0    -1  
$EndComp
$Comp
L Device:CP C1
U 1 1 61AB0D25
P 2800 1750
F 0 "C1" H 2918 1796 50  0000 L CNN
F 1 "1.000 µF" H 2918 1705 50  0000 L CNN
F 2 "" H 2838 1600 50  0001 C CNN
F 3 "~" H 2800 1750 50  0001 C CNN
	1    2800 1750
	1    0    0    -1  
$EndComp
Wire Wire Line
	2800 1600 2800 1500
Wire Wire Line
	2800 1500 2500 1500
Wire Wire Line
	2800 1900 2800 2000
Wire Wire Line
	2800 2000 2500 2000
Wire Wire Line
	2500 1500 2150 1500
Wire Wire Line
	2150 1500 2150 1700
Wire Wire Line
	2150 1700 2000 1700
Connection ~ 2500 1500
Wire Wire Line
	2000 1800 2150 1800
Wire Wire Line
	2150 1800 2150 2000
Wire Wire Line
	2150 2000 2500 2000
Connection ~ 2500 2000
$Comp
L power:+5V #PWR?
U 1 1 61AB296C
P 4050 900
F 0 "#PWR?" H 4050 750 50  0001 C CNN
F 1 "+5V" H 4065 1073 50  0000 C CNN
F 2 "" H 4050 900 50  0001 C CNN
F 3 "" H 4050 900 50  0001 C CNN
	1    4050 900 
	1    0    0    -1  
$EndComp
$Comp
L power:GND #PWR?
U 1 1 61AB33EA
P 4150 3150
F 0 "#PWR?" H 4150 2900 50  0001 C CNN
F 1 "GND" H 4155 2977 50  0000 C CNN
F 2 "" H 4150 3150 50  0001 C CNN
F 3 "" H 4150 3150 50  0001 C CNN
	1    4150 3150
	1    0    0    -1  
$EndComp
Wire Wire Line
	4150 2800 4150 3150
Wire Wire Line
	4050 900  4050 1200
$Comp
L LED:WS2812B D1
U 1 1 61ABB761
P 3250 4400
F 0 "D1" H 3594 4446 50  0000 L CNN
F 1 "32x WS2812B" H 3594 4355 50  0000 L CNN
F 2 "LED_SMD:LED_WS2812B_PLCC4_5.0x5.0mm_P3.2mm" H 3300 4100 50  0001 L TNN
F 3 "https://cdn-shop.adafruit.com/datasheets/WS2812B.pdf" H 3350 4025 50  0001 L TNN
	1    3250 4400
	1    0    0    -1  
$EndComp
$Comp
L power:+5V #PWR?
U 1 1 61ABC65B
P 1100 4100
F 0 "#PWR?" H 1100 3950 50  0001 C CNN
F 1 "+5V" H 1115 4273 50  0000 C CNN
F 2 "" H 1100 4100 50  0001 C CNN
F 3 "" H 1100 4100 50  0001 C CNN
	1    1100 4100
	1    0    0    -1  
$EndComp
Text GLabel 1600 4300 0    50   Output ~ 0
Neo1Din
Wire Wire Line
	1750 4300 1600 4300
Text GLabel 4800 2300 2    50   Input ~ 0
Neo1Din
Text GLabel 4800 2400 2    50   Input ~ 0
Neo2Din
Wire Wire Line
	4550 2300 4800 2300
Wire Wire Line
	4800 2400 4550 2400
$Comp
L power:GND #PWR?
U 1 1 61AC0FE9
P 1200 5550
F 0 "#PWR?" H 1200 5300 50  0001 C CNN
F 1 "GND" H 1205 5377 50  0000 C CNN
F 2 "" H 1200 5550 50  0001 C CNN
F 3 "" H 1200 5550 50  0001 C CNN
	1    1200 5550
	1    0    0    -1  
$EndComp
Wire Wire Line
	1200 5550 1200 5450
Text GLabel 1600 5250 0    50   Output ~ 0
Neo2Din
Wire Wire Line
	1750 4400 1100 4400
Wire Wire Line
	1100 4400 1100 4100
Wire Wire Line
	1100 4400 1100 5350
Wire Wire Line
	1100 5350 1750 5350
Connection ~ 1100 4400
Wire Wire Line
	1200 5450 1750 5450
Wire Wire Line
	1200 5450 1200 4500
Wire Wire Line
	1200 4500 1750 4500
Connection ~ 1200 5450
Wire Wire Line
	1600 5250 1750 5250
Wire Wire Line
	2700 4300 2300 4300
Wire Wire Line
	2600 4400 2300 4400
Wire Wire Line
	2300 4500 2600 4500
$Comp
L LED:WS2812B D2
U 1 1 61AC9053
P 3250 5350
F 0 "D2" H 3594 5396 50  0000 L CNN
F 1 "32x WS2812B" H 3594 5305 50  0000 L CNN
F 2 "LED_SMD:LED_WS2812B_PLCC4_5.0x5.0mm_P3.2mm" H 3300 5050 50  0001 L TNN
F 3 "https://cdn-shop.adafruit.com/datasheets/WS2812B.pdf" H 3350 4975 50  0001 L TNN
	1    3250 5350
	1    0    0    -1  
$EndComp
Wire Wire Line
	2600 4500 2600 4700
Wire Wire Line
	2600 4700 3250 4700
Wire Wire Line
	2700 4300 2700 4400
Wire Wire Line
	2700 4400 2950 4400
Wire Wire Line
	2600 4100 3250 4100
Wire Wire Line
	2600 4100 2600 4400
Wire Wire Line
	2300 5250 2700 5250
Wire Wire Line
	2700 5250 2700 5350
Wire Wire Line
	2700 5350 2950 5350
Wire Wire Line
	2300 5350 2600 5350
Wire Wire Line
	2600 5350 2600 5050
Wire Wire Line
	2600 5050 3250 5050
Wire Wire Line
	2300 5450 2600 5450
Wire Wire Line
	2600 5450 2600 5650
Wire Wire Line
	2600 5650 3250 5650
Wire Wire Line
	9150 1250 9400 1250
Wire Wire Line
	9150 1350 9400 1350
Text GLabel 6050 1950 0    50   Input ~ 0
SPK1
Text GLabel 6050 2150 0    50   Input ~ 0
SPK2
Text GLabel 8400 1250 0    50   Output ~ 0
SPK1
Text GLabel 8400 1350 0    50   Output ~ 0
SPK2
Wire Wire Line
	8400 1250 8600 1250
Wire Wire Line
	8400 1350 8600 1350
Wire Wire Line
	6050 1950 6300 1950
Wire Wire Line
	6300 2150 6050 2150
$Comp
L power:GND #PWR?
U 1 1 61AD6605
P 6250 2450
F 0 "#PWR?" H 6250 2200 50  0001 C CNN
F 1 "GND" H 6255 2277 50  0000 C CNN
F 2 "" H 6250 2450 50  0001 C CNN
F 3 "" H 6250 2450 50  0001 C CNN
	1    6250 2450
	1    0    0    -1  
$EndComp
$Comp
L power:+5V #PWR?
U 1 1 61AD70ED
P 6200 1100
F 0 "#PWR?" H 6200 950 50  0001 C CNN
F 1 "+5V" H 6215 1273 50  0000 C CNN
F 2 "" H 6200 1100 50  0001 C CNN
F 3 "" H 6200 1100 50  0001 C CNN
	1    6200 1100
	1    0    0    -1  
$EndComp
Wire Wire Line
	6200 1100 6200 1300
Wire Wire Line
	6200 1300 6300 1300
$Comp
L Switch:SW_Rotary3x4 SW1
U 1 1 61AE5F04
P 10050 3400
F 0 "SW1" H 10100 4290 50  0000 C CNN
F 1 "SW_Rotary3x4" H 10100 4199 50  0000 C CNN
F 2 "" H 9950 4200 50  0001 C CNN
F 3 "http://cdn-reichelt.de/documents/datenblatt/C200/DS-Serie%23LOR.pdf" H 9950 4200 50  0001 C CNN
	1    10050 3400
	-1   0    0    -1  
$EndComp
Wire Wire Line
	9050 3400 9050 4150
Wire Wire Line
	9050 4150 10550 4150
Wire Wire Line
	10550 4150 10550 3400
Wire Wire Line
	10550 3400 10450 3400
Wire Wire Line
	10550 3400 10550 2900
Wire Wire Line
	10550 2900 10450 2900
Connection ~ 10550 3400
Wire Wire Line
	9050 3400 9000 3400
Wire Wire Line
	9550 2800 9400 2800
Wire Wire Line
	9400 2800 9400 3000
Wire Wire Line
	9400 3000 9550 3000
Wire Wire Line
	9400 3000 9400 3300
Wire Wire Line
	9400 3300 9000 3300
Connection ~ 9400 3000
Wire Wire Line
	9550 3400 9450 3400
Wire Wire Line
	9450 3400 9450 3500
Wire Wire Line
	9450 3500 9550 3500
Wire Wire Line
	9450 3400 9450 3200
Wire Wire Line
	9450 3200 9000 3200
Connection ~ 9450 3400
$Comp
L Switch:SW_Rotary3x4 SW2
U 1 1 61B1A2CE
P 10050 5200
F 0 "SW2" H 10100 6090 50  0000 C CNN
F 1 "SW_Rotary3x4" H 10100 5999 50  0000 C CNN
F 2 "" H 9950 6000 50  0001 C CNN
F 3 "http://cdn-reichelt.de/documents/datenblatt/C200/DS-Serie%23LOR.pdf" H 9950 6000 50  0001 C CNN
	1    10050 5200
	-1   0    0    -1  
$EndComp
Wire Wire Line
	9050 5200 9050 5950
Wire Wire Line
	9050 5950 10550 5950
Wire Wire Line
	10550 5950 10550 5200
Wire Wire Line
	10550 5200 10450 5200
Wire Wire Line
	10550 5200 10550 4700
Wire Wire Line
	10550 4700 10450 4700
Connection ~ 10550 5200
Wire Wire Line
	9050 5200 9000 5200
Wire Wire Line
	9550 4600 9400 4600
Wire Wire Line
	9400 4600 9400 4800
Wire Wire Line
	9400 4800 9550 4800
Wire Wire Line
	9400 4800 9400 5100
Wire Wire Line
	9400 5100 9000 5100
Connection ~ 9400 4800
Wire Wire Line
	9550 5200 9450 5200
Wire Wire Line
	9450 5200 9450 5300
Wire Wire Line
	9450 5300 9550 5300
Wire Wire Line
	9450 5200 9450 5000
Wire Wire Line
	9450 5000 9000 5000
Connection ~ 9450 5200
Wire Wire Line
	4550 2100 5650 2100
Wire Wire Line
	5650 2100 5650 1550
Wire Wire Line
	5650 1550 6300 1550
Wire Wire Line
	4550 2200 5550 2200
Wire Wire Line
	5550 2200 5550 1450
Wire Wire Line
	5550 1450 6300 1450
Text GLabel 4800 1800 2    50   Output ~ 0
SW1Bit0
Text GLabel 4800 1700 2    50   Output ~ 0
SW1Bit1
Text GLabel 4800 2000 2    50   Output ~ 0
SW2Bit0
Text GLabel 4800 1900 2    50   Output ~ 0
SW2Bit1
Text GLabel 8250 3300 0    50   Input ~ 0
SW1Bit0
Text GLabel 8250 3200 0    50   Input ~ 0
SW1Bit1
Text GLabel 8250 5000 0    50   Input ~ 0
SW2Bit1
Text GLabel 8250 5100 0    50   Input ~ 0
SW2Bit0
$Comp
L power:GND #PWR?
U 1 1 61B49C23
P 8250 3550
F 0 "#PWR?" H 8250 3300 50  0001 C CNN
F 1 "GND" H 8255 3377 50  0000 C CNN
F 2 "" H 8250 3550 50  0001 C CNN
F 3 "" H 8250 3550 50  0001 C CNN
	1    8250 3550
	1    0    0    -1  
$EndComp
$Comp
L power:GND #PWR?
U 1 1 61B4A5C1
P 8250 5350
F 0 "#PWR?" H 8250 5100 50  0001 C CNN
F 1 "GND" H 8255 5177 50  0000 C CNN
F 2 "" H 8250 5350 50  0001 C CNN
F 3 "" H 8250 5350 50  0001 C CNN
	1    8250 5350
	1    0    0    -1  
$EndComp
Wire Wire Line
	8450 3200 8250 3200
Wire Wire Line
	8250 3300 8450 3300
Wire Wire Line
	8450 3400 8250 3400
Wire Wire Line
	8250 3400 8250 3550
Wire Wire Line
	8450 5000 8250 5000
Wire Wire Line
	8250 5100 8450 5100
Wire Wire Line
	8450 5200 8250 5200
Wire Wire Line
	8250 5200 8250 5350
Wire Wire Line
	4550 1700 4800 1700
Wire Wire Line
	4550 1800 4800 1800
Wire Wire Line
	4550 1900 4800 1900
Wire Wire Line
	4550 2000 4800 2000
Wire Wire Line
	6250 2450 6250 2050
Wire Wire Line
	6250 2050 6300 2050
NoConn ~ 7250 1300
NoConn ~ 7250 1450
NoConn ~ 7250 1550
NoConn ~ 7250 1700
NoConn ~ 7250 1800
NoConn ~ 7250 1950
NoConn ~ 7250 2050
NoConn ~ 7250 2150
NoConn ~ 6300 1800
NoConn ~ 6300 1700
NoConn ~ 4550 1600
NoConn ~ 4550 1500
NoConn ~ 4250 1200
NoConn ~ 3750 1600
NoConn ~ 3750 1900
NoConn ~ 3750 2000
NoConn ~ 10450 3900
NoConn ~ 10450 5700
NoConn ~ 9550 4700
NoConn ~ 9550 4500
NoConn ~ 9550 5000
NoConn ~ 9550 5100
NoConn ~ 9550 5500
NoConn ~ 9550 5600
NoConn ~ 9550 5700
NoConn ~ 9550 5800
NoConn ~ 9550 4000
NoConn ~ 9550 3900
NoConn ~ 9550 3800
NoConn ~ 9550 3700
NoConn ~ 9550 3300
NoConn ~ 9550 3200
NoConn ~ 9550 2900
NoConn ~ 9550 2700
$EndSCHEMATC
